<svg xmlns="http://www.w3.org/2000/svg" viewBox="0 0 200 200">
    <g>
        <path d="M1015 1984c-32-32-106-194-104-227 5-76-53-149-313-392l-107-100-26 23c-24 20-36 22-155 22H180l-44-43c-41-39-47-52-71-142C20 950 6 847 6 670c0-141 4-184 27-294C79 161 111 58 141 27l27-27h424c358 0 427 2 445 15s22 13 33 0c19-23 901-22 920 0 7 8 10 20 7 27-2 7-52 40-111 73l-106 60v255l1 255 45 29c54 34 117 115 134 173 10 33 9 99-4 343-10 166-20 308-23 316-8 21-358 21-367-1-3-8-11-120-18-249-6-130-14-233-16-231s-10 109-18 237-16 239-19 246c-3 9-49 12-179 12-157 0-176-2-184-17-10-19-33-388-35-558-1-85 2-106 20-141 21-40 135-154 154-154 5 0 9-103 9-258V174l-100-57c-55-31-101-57-103-57s7 37 20 83c26 87 67 278 78 363l7 52-31 4c-29 4-31 3-37-41-19-145-85-421-107-448-14-19-810-19-825 0-29 35-104 370-117 522-7 88 6 252 33 390l17 90 5-77c3-43 8-79 10-81 3-2 44-27 93-56l87-53 58 33c31 17 74 43 95 56l37 23v270h370V970c0-240-1-245-53-190l-29 30H398l-28-30c-30-32-60-40-60-15 0 10-10 15-31 15-29 0-30-1-27-42l3-43 44-3c32-2 49-10 63-27 28-36 77-45 233-45 158 0 208 10 231 45 13 20 25 25 59 25 30 0 45 5 49 16 3 9 6 121 6 250v234h120v30c0 17-4 30-10 30-14 0-13 33 5 136 18 105 72 229 104 239 25 8 121 190 121 228 0 30-16 44-122 100-93 51-118 56-143 31zm129-95c51-27 73-45 70-54-5-11-19-8-67 17-83 42-108 58-101 69 9 14 18 11 98-32zm-50-80c42-22 76-46 76-52-1-7-9-26-18-44l-17-32-82 45-83 45 20 40c11 21 22 39 24 39 3 0 39-18 80-41zm-64-146l48-27-30-60c-23-45-66-202-68-244 0-4-109 55-168 90l-32 20 64 69c35 38 76 93 92 124 16 30 33 55 38 55 4 0 30-12 56-27zm410-190c0-16 3-52 6-80l7-53h-273v73c0 41 3 77 7 80 3 4 62 7 130 7h123v-27zm442-45c2-40 2-76 0-80-2-5-61-8-132-8s-130 3-132 8c-2 4-2 40 0 80l4 72h256l4-72zM882 1310c43-23 80-46 84-51 3-5-78-9-198-9l-203 1 80 74 80 74 40-23c22-13 75-42 117-66zm572-67c3-21 8-102 12-179 5-127 4-146-13-185-25-56-103-129-138-129s-87 41-125 98c-28 43-30 51-30 147 0 56 3 143 6 193l7 92h275l6-37zm436 25c1-7 5-85 10-173 11-196 6-220-67-292-71-72-95-72-168 1-72 72-77 93-65 291 5 88 10 166 10 173 0 18 280 18 280 0zm-1462-30c8-8 12-55 12-147V955l-64-37-65-38-60 36-61 36v143c0 78 3 145 7 148 12 13 218 8 231-5zm1161-444c20-26 57-61 83-78l47-31V430l1-255-95-53-95-54-93 54-92 53-3 252-2 252 43 30c58 39 105 94 130 150l21 46 9-31c5-17 26-53 46-80zm-814-74v-25l-178-3c-151-2-178 0-183 13-4 8-4 22 0 30 5 13 32 15 183 13l178-3v-25zm584-627l46-28-47-3c-27-2-69-2-95 0l-48 3 45 26c25 15 47 27 49 28s25-11 50-26zm439 0l47-28-47-3c-27-2-69-2-95 0l-48 3 45 27c25 15 46 27 48 28 2 0 24-12 50-27z" transform="matrix(.1 0 0 -.1 0 200)"/>
        <path d="M1372 1063c2-23 8-29 36-31 30-3 32-1 32 27 0 29-3 31-36 31s-35-2-32-27z" transform="matrix(.1 0 0 -.1 0 200)"/>
        <path d="M1377 963c-4-3-7-17-7-30 0-20 5-23 35-23 32 0 35 2 35 30 0 26-4 30-28 30-16 0-32-3-35-7z" transform="matrix(.1 0 0 -.1 0 200)"/>
        <path d="M1810 1059c0-28 2-30 33-27 27 2 33 8 35 31 3 25 1 27-32 27s-36-2-36-31z" transform="matrix(.1 0 0 -.1 0 200)"/>
        <path d="M1810 941c0-29 3-31 36-31s35 2 32 28c-2 22-8 28-35 30-31 3-33 1-33-27z" transform="matrix(.1 0 0 -.1 0 200)"/>
        <path d="M1127 683c-4-3-7-16-7-29 0-16 7-23 27-27 36-7 43-2 43 34 0 25-4 29-28 29-16 0-32-3-35-7z" transform="matrix(.1 0 0 -.1 0 200)"/>
    </g>
</svg>
