<svg fill="#300868" xmlns="http://www.w3.org/2000/svg" viewBox="0 0 512 512">
    <path d="M407.58 87.68C376.5 34.05 321.3 1.29 259.94.04c-2.62-.05-5.26-.05-7.88 0C190.7 1.29 135.5 34.05 104.42 87.68c-31.76 54.8-32.63 120.65-2.32 176.12l126.96 232.39.17.3A30.57 30.57 0 00256 512a30.57 30.57 0 0026.94-15.81L409.91 263.8c30.3-55.47 29.43-121.31-2.33-176.12zM256 232c-39.7 0-72-32.3-72-72s32.3-72 72-72 72 32.3 72 72-32.3 72-72 72z"/>
</svg>
